Project3 · Portfolio website for Madhur Agarwal
…
## # A tibble: 6,774 x 3
##    symbol date       price
##    <fct>  <date>     <dbl>
##  1 TB3MS  1960-01-01  4.35
##  2 TB3MS  1960-02-01  3.96
##  3 TB3MS  1960-03-01  3.31
##  4 TB3MS  1960-04-01  3.23
##  5 TB3MS  1960-05-01  3.29
##  6 TB3MS  1960-06-01  2.46
##  7 TB3MS  1960-07-01  2.3 
##  8 TB3MS  1960-08-01  2.3 
##  9 TB3MS  1960-09-01  2.48
## 10 TB3MS  1960-10-01  2.3 
## # ... with 6,764 more rows
…
